%!PS-Adobe-3.0 EPSF-3.0
%%Creator: (MATLAB, The Mathworks, Inc. Version 9.5.0.1049112 \(R2018b\) Update 3. Operating System: Windows 10)
%%Title: E:/zut/sem6/LBWiIZ/Lab/Lab1/ZD1.eps
%%CreationDate: 2019-03-21T18:19:06
%%Pages: (atend)
%%BoundingBox: 0 0 719 716
%%LanguageLevel: 3
%%EndComments
%%BeginProlog
%%BeginResource: procset (Apache XML Graphics Std ProcSet) 1.2 0
%%Version: 1.2 0
%%Copyright: (Copyright 2001-2003,2010 The Apache Software Foundation. License terms: http://www.apache.org/licenses/LICENSE-2.0)
/bd{bind def}bind def
/ld{load def}bd
/GR/grestore ld
/GS/gsave ld
/RM/rmoveto ld
/C/curveto ld
/t/show ld
/L/lineto ld
/ML/setmiterlimit ld
/CT/concat ld
/f/fill ld
/N/newpath ld
/S/stroke ld
/CC/setcmykcolor ld
/A/ashow ld
/cp/closepath ld
/RC/setrgbcolor ld
/LJ/setlinejoin ld
/GC/setgray ld
/LW/setlinewidth ld
/M/moveto ld
/re {4 2 roll M
1 index 0 rlineto
0 exch rlineto
neg 0 rlineto
cp } bd
/_ctm matrix def
/_tm matrix def
/BT { _ctm currentmatrix pop matrix _tm copy pop 0 0 moveto } bd
/ET { _ctm setmatrix } bd
/iTm { _ctm setmatrix _tm concat } bd
/Tm { _tm astore pop iTm 0 0 moveto } bd
/ux 0.0 def
/uy 0.0 def
/F {
  /Tp exch def
  /Tf exch def
  Tf findfont Tp scalefont setfont
  /cf Tf def  /cs Tp def
} bd
/ULS {currentpoint /uy exch def /ux exch def} bd
/ULE {
  /Tcx currentpoint pop def
  gsave
  newpath
  cf findfont cs scalefont dup
  /FontMatrix get 0 get /Ts exch def /FontInfo get dup
  /UnderlinePosition get Ts mul /To exch def
  /UnderlineThickness get Ts mul /Tt exch def
  ux uy To add moveto  Tcx uy To add lineto
  Tt setlinewidth stroke
  grestore
} bd
/OLE {
  /Tcx currentpoint pop def
  gsave
  newpath
  cf findfont cs scalefont dup
  /FontMatrix get 0 get /Ts exch def /FontInfo get dup
  /UnderlinePosition get Ts mul /To exch def
  /UnderlineThickness get Ts mul /Tt exch def
  ux uy To add cs add moveto Tcx uy To add cs add lineto
  Tt setlinewidth stroke
  grestore
} bd
/SOE {
  /Tcx currentpoint pop def
  gsave
  newpath
  cf findfont cs scalefont dup
  /FontMatrix get 0 get /Ts exch def /FontInfo get dup
  /UnderlinePosition get Ts mul /To exch def
  /UnderlineThickness get Ts mul /Tt exch def
  ux uy To add cs 10 mul 26 idiv add moveto Tcx uy To add cs 10 mul 26 idiv add lineto
  Tt setlinewidth stroke
  grestore
} bd
/QT {
/Y22 exch store
/X22 exch store
/Y21 exch store
/X21 exch store
currentpoint
/Y21 load 2 mul add 3 div exch
/X21 load 2 mul add 3 div exch
/X21 load 2 mul /X22 load add 3 div
/Y21 load 2 mul /Y22 load add 3 div
/X22 load /Y22 load curveto
} bd
/SSPD {
dup length /d exch dict def
{
/v exch def
/k exch def
currentpagedevice k known {
/cpdv currentpagedevice k get def
v cpdv ne {
/upd false def
/nullv v type /nulltype eq def
/nullcpdv cpdv type /nulltype eq def
nullv nullcpdv or
{
/upd true def
} {
/sametype v type cpdv type eq def
sametype {
v type /arraytype eq {
/vlen v length def
/cpdvlen cpdv length def
vlen cpdvlen eq {
0 1 vlen 1 sub {
/i exch def
/obj v i get def
/cpdobj cpdv i get def
obj cpdobj ne {
/upd true def
exit
} if
} for
} {
/upd true def
} ifelse
} {
v type /dicttype eq {
v {
/dv exch def
/dk exch def
/cpddv cpdv dk get def
dv cpddv ne {
/upd true def
exit
} if
} forall
} {
/upd true def
} ifelse
} ifelse
} if
} ifelse
upd true eq {
d k v put
} if
} if
} if
} forall
d length 0 gt {
d setpagedevice
} if
} bd
/RE { % /NewFontName [NewEncodingArray] /FontName RE -
  findfont dup length dict begin
  {
    1 index /FID ne
    {def} {pop pop} ifelse
  } forall
  /Encoding exch def
  /FontName 1 index def
  currentdict definefont pop
  end
} bind def
%%EndResource
%%BeginResource: procset (Apache XML Graphics EPS ProcSet) 1.0 0
%%Version: 1.0 0
%%Copyright: (Copyright 2002-2003 The Apache Software Foundation. License terms: http://www.apache.org/licenses/LICENSE-2.0)
/BeginEPSF { %def
/b4_Inc_state save def         % Save state for cleanup
/dict_count countdictstack def % Count objects on dict stack
/op_count count 1 sub def      % Count objects on operand stack
userdict begin                 % Push userdict on dict stack
/showpage { } def              % Redefine showpage, { } = null proc
0 setgray 0 setlinecap         % Prepare graphics state
1 setlinewidth 0 setlinejoin
10 setmiterlimit [ ] 0 setdash newpath
/languagelevel where           % If level not equal to 1 then
{pop languagelevel             % set strokeadjust and
1 ne                           % overprint to their defaults.
{false setstrokeadjust false setoverprint
} if
} if
} bd
/EndEPSF { %def
count op_count sub {pop} repeat            % Clean up stacks
countdictstack dict_count sub {end} repeat
b4_Inc_state restore
} bd
%%EndResource
%FOPBeginFontDict
%%IncludeResource: font Courier-Oblique
%%IncludeResource: font Courier-BoldOblique
%%IncludeResource: font Courier-Bold
%%IncludeResource: font ZapfDingbats
%%IncludeResource: font Symbol
%%IncludeResource: font Helvetica
%%IncludeResource: font Helvetica-Oblique
%%IncludeResource: font Helvetica-Bold
%%IncludeResource: font Helvetica-BoldOblique
%%IncludeResource: font Times-Roman
%%IncludeResource: font Times-Italic
%%IncludeResource: font Times-Bold
%%IncludeResource: font Times-BoldItalic
%%IncludeResource: font Courier
%FOPEndFontDict
%%BeginResource: encoding WinAnsiEncoding
/WinAnsiEncoding [
/.notdef /.notdef /.notdef /.notdef /.notdef
/.notdef /.notdef /.notdef /.notdef /.notdef
/.notdef /.notdef /.notdef /.notdef /.notdef
/.notdef /.notdef /.notdef /.notdef /.notdef
/.notdef /.notdef /.notdef /.notdef /.notdef
/.notdef /.notdef /.notdef /.notdef /.notdef
/.notdef /.notdef /space /exclam /quotedbl
/numbersign /dollar /percent /ampersand /quotesingle
/parenleft /parenright /asterisk /plus /comma
/hyphen /period /slash /zero /one
/two /three /four /five /six
/seven /eight /nine /colon /semicolon
/less /equal /greater /question /at
/A /B /C /D /E
/F /G /H /I /J
/K /L /M /N /O
/P /Q /R /S /T
/U /V /W /X /Y
/Z /bracketleft /backslash /bracketright /asciicircum
/underscore /quoteleft /a /b /c
/d /e /f /g /h
/i /j /k /l /m
/n /o /p /q /r
/s /t /u /v /w
/x /y /z /braceleft /bar
/braceright /asciitilde /bullet /Euro /bullet
/quotesinglbase /florin /quotedblbase /ellipsis /dagger
/daggerdbl /circumflex /perthousand /Scaron /guilsinglleft
/OE /bullet /Zcaron /bullet /bullet
/quoteleft /quoteright /quotedblleft /quotedblright /bullet
/endash /emdash /asciitilde /trademark /scaron
/guilsinglright /oe /bullet /zcaron /Ydieresis
/space /exclamdown /cent /sterling /currency
/yen /brokenbar /section /dieresis /copyright
/ordfeminine /guillemotleft /logicalnot /sfthyphen /registered
/macron /degree /plusminus /twosuperior /threesuperior
/acute /mu /paragraph /middot /cedilla
/onesuperior /ordmasculine /guillemotright /onequarter /onehalf
/threequarters /questiondown /Agrave /Aacute /Acircumflex
/Atilde /Adieresis /Aring /AE /Ccedilla
/Egrave /Eacute /Ecircumflex /Edieresis /Igrave
/Iacute /Icircumflex /Idieresis /Eth /Ntilde
/Ograve /Oacute /Ocircumflex /Otilde /Odieresis
/multiply /Oslash /Ugrave /Uacute /Ucircumflex
/Udieresis /Yacute /Thorn /germandbls /agrave
/aacute /acircumflex /atilde /adieresis /aring
/ae /ccedilla /egrave /eacute /ecircumflex
/edieresis /igrave /iacute /icircumflex /idieresis
/eth /ntilde /ograve /oacute /ocircumflex
/otilde /odieresis /divide /oslash /ugrave
/uacute /ucircumflex /udieresis /yacute /thorn
/ydieresis
] def
%%EndResource
%FOPBeginFontReencode
/Courier-Oblique findfont
dup length dict begin
  {1 index /FID ne {def} {pop pop} ifelse} forall
  /Encoding WinAnsiEncoding def
  currentdict
end
/Courier-Oblique exch definefont pop
/Courier-BoldOblique findfont
dup length dict begin
  {1 index /FID ne {def} {pop pop} ifelse} forall
  /Encoding WinAnsiEncoding def
  currentdict
end
/Courier-BoldOblique exch definefont pop
/Courier-Bold findfont
dup length dict begin
  {1 index /FID ne {def} {pop pop} ifelse} forall
  /Encoding WinAnsiEncoding def
  currentdict
end
/Courier-Bold exch definefont pop
/Helvetica findfont
dup length dict begin
  {1 index /FID ne {def} {pop pop} ifelse} forall
  /Encoding WinAnsiEncoding def
  currentdict
end
/Helvetica exch definefont pop
/Helvetica-Oblique findfont
dup length dict begin
  {1 index /FID ne {def} {pop pop} ifelse} forall
  /Encoding WinAnsiEncoding def
  currentdict
end
/Helvetica-Oblique exch definefont pop
/Helvetica-Bold findfont
dup length dict begin
  {1 index /FID ne {def} {pop pop} ifelse} forall
  /Encoding WinAnsiEncoding def
  currentdict
end
/Helvetica-Bold exch definefont pop
/Helvetica-BoldOblique findfont
dup length dict begin
  {1 index /FID ne {def} {pop pop} ifelse} forall
  /Encoding WinAnsiEncoding def
  currentdict
end
/Helvetica-BoldOblique exch definefont pop
/Times-Roman findfont
dup length dict begin
  {1 index /FID ne {def} {pop pop} ifelse} forall
  /Encoding WinAnsiEncoding def
  currentdict
end
/Times-Roman exch definefont pop
/Times-Italic findfont
dup length dict begin
  {1 index /FID ne {def} {pop pop} ifelse} forall
  /Encoding WinAnsiEncoding def
  currentdict
end
/Times-Italic exch definefont pop
/Times-Bold findfont
dup length dict begin
  {1 index /FID ne {def} {pop pop} ifelse} forall
  /Encoding WinAnsiEncoding def
  currentdict
end
/Times-Bold exch definefont pop
/Times-BoldItalic findfont
dup length dict begin
  {1 index /FID ne {def} {pop pop} ifelse} forall
  /Encoding WinAnsiEncoding def
  currentdict
end
/Times-BoldItalic exch definefont pop
/Courier findfont
dup length dict begin
  {1 index /FID ne {def} {pop pop} ifelse} forall
  /Encoding WinAnsiEncoding def
  currentdict
end
/Courier exch definefont pop
%FOPEndFontReencode
%%EndProlog
%%Page: 1 1
%%PageBoundingBox: 0 0 719 716
%%BeginPageSetup
[1 0 0 -1 0 716] CT
%%EndPageSetup
GS
[0.75 0 0 0.75 0 0.5] CT
1 GC
N
0 0 958 954 re
f
GR
GS
[0.75 0 0 0.75 0 0.5] CT
1 GC
N
0 0 958 954 re
f
GR
GS
[0.75 0 0 0.75 0 0.5] CT
1 GC
N
110 849 M
765 849 L
765 72 L
110 72 L
cp
f
GR
GS
[0.75 0 0 0.75 0 0.5] CT
0.149 GC
2 setlinecap
1 LJ
0.667 LW
N
110 849 M
765 849 L
S
GR
GS
[0.75 0 0 0.75 0 0.5] CT
0.149 GC
2 setlinecap
1 LJ
0.667 LW
N
110 72 M
765 72 L
S
GR
GS
[0.75 0 0 0.75 0 0.5] CT
0.149 GC
2 setlinecap
1 LJ
0.667 LW
N
110 849 M
110 841.23 L
S
GR
GS
[0.75 0 0 0.75 0 0.5] CT
0.149 GC
2 setlinecap
1 LJ
0.667 LW
N
175.5 849 M
175.5 841.23 L
S
GR
GS
[0.75 0 0 0.75 0 0.5] CT
0.149 GC
2 setlinecap
1 LJ
0.667 LW
N
241 849 M
241 841.23 L
S
GR
GS
[0.75 0 0 0.75 0 0.5] CT
0.149 GC
2 setlinecap
1 LJ
0.667 LW
N
306.5 849 M
306.5 841.23 L
S
GR
GS
[0.75 0 0 0.75 0 0.5] CT
0.149 GC
2 setlinecap
1 LJ
0.667 LW
N
372 849 M
372 841.23 L
S
GR
GS
[0.75 0 0 0.75 0 0.5] CT
0.149 GC
2 setlinecap
1 LJ
0.667 LW
N
437.5 849 M
437.5 841.23 L
S
GR
GS
[0.75 0 0 0.75 0 0.5] CT
0.149 GC
2 setlinecap
1 LJ
0.667 LW
N
503 849 M
503 841.23 L
S
GR
GS
[0.75 0 0 0.75 0 0.5] CT
0.149 GC
2 setlinecap
1 LJ
0.667 LW
N
568.5 849 M
568.5 841.23 L
S
GR
GS
[0.75 0 0 0.75 0 0.5] CT
0.149 GC
2 setlinecap
1 LJ
0.667 LW
N
634 849 M
634 841.23 L
S
GR
GS
[0.75 0 0 0.75 0 0.5] CT
0.149 GC
2 setlinecap
1 LJ
0.667 LW
N
699.5 849 M
699.5 841.23 L
S
GR
GS
[0.75 0 0 0.75 0 0.5] CT
0.149 GC
2 setlinecap
1 LJ
0.667 LW
N
765 849 M
765 841.23 L
S
GR
GS
[0.75 0 0 0.75 0 0.5] CT
0.149 GC
2 setlinecap
1 LJ
0.667 LW
N
110 72 M
110 79.77 L
S
GR
GS
[0.75 0 0 0.75 0 0.5] CT
0.149 GC
2 setlinecap
1 LJ
0.667 LW
N
175.5 72 M
175.5 79.77 L
S
GR
GS
[0.75 0 0 0.75 0 0.5] CT
0.149 GC
2 setlinecap
1 LJ
0.667 LW
N
241 72 M
241 79.77 L
S
GR
GS
[0.75 0 0 0.75 0 0.5] CT
0.149 GC
2 setlinecap
1 LJ
0.667 LW
N
306.5 72 M
306.5 79.77 L
S
GR
GS
[0.75 0 0 0.75 0 0.5] CT
0.149 GC
2 setlinecap
1 LJ
0.667 LW
N
372 72 M
372 79.77 L
S
GR
GS
[0.75 0 0 0.75 0 0.5] CT
0.149 GC
2 setlinecap
1 LJ
0.667 LW
N
437.5 72 M
437.5 79.77 L
S
GR
GS
[0.75 0 0 0.75 0 0.5] CT
0.149 GC
2 setlinecap
1 LJ
0.667 LW
N
503 72 M
503 79.77 L
S
GR
GS
[0.75 0 0 0.75 0 0.5] CT
0.149 GC
2 setlinecap
1 LJ
0.667 LW
N
568.5 72 M
568.5 79.77 L
S
GR
GS
[0.75 0 0 0.75 0 0.5] CT
0.149 GC
2 setlinecap
1 LJ
0.667 LW
N
634 72 M
634 79.77 L
S
GR
GS
[0.75 0 0 0.75 0 0.5] CT
0.149 GC
2 setlinecap
1 LJ
0.667 LW
N
699.5 72 M
699.5 79.77 L
S
GR
GS
[0.75 0 0 0.75 0 0.5] CT
0.149 GC
2 setlinecap
1 LJ
0.667 LW
N
765 72 M
765 79.77 L
S
GR
GS
[0.75 0 0 0.75 82.5 641.24998] CT
0.149 GC
/Helvetica 13.333 F
GS
[1 0 0 1 0 0] CT
-4 14 moveto 
1 -1 scale
(0) t 
GR
GR
GS
[0.75 0 0 0.75 131.625 641.24998] CT
0.149 GC
/Helvetica 13.333 F
GS
[1 0 0 1 0 0] CT
-9.5 14 moveto 
1 -1 scale
(0.1) t 
GR
GR
GS
[0.75 0 0 0.75 180.75 641.24998] CT
0.149 GC
/Helvetica 13.333 F
GS
[1 0 0 1 0 0] CT
-9.5 14 moveto 
1 -1 scale
(0.2) t 
GR
GR
GS
[0.75 0 0 0.75 229.875 641.24998] CT
0.149 GC
/Helvetica 13.333 F
GS
[1 0 0 1 0 0] CT
-9.5 14 moveto 
1 -1 scale
(0.3) t 
GR
GR
GS
[0.75 0 0 0.75 279 641.24998] CT
0.149 GC
/Helvetica 13.333 F
GS
[1 0 0 1 0 0] CT
-9.5 14 moveto 
1 -1 scale
(0.4) t 
GR
GR
GS
[0.75 0 0 0.75 328.125 641.24998] CT
0.149 GC
/Helvetica 13.333 F
GS
[1 0 0 1 0 0] CT
-9.5 14 moveto 
1 -1 scale
(0.5) t 
GR
GR
GS
[0.75 0 0 0.75 377.25002 641.24998] CT
0.149 GC
/Helvetica 13.333 F
GS
[1 0 0 1 0 0] CT
-9.5 14 moveto 
1 -1 scale
(0.6) t 
GR
GR
GS
[0.75 0 0 0.75 426.375 641.24998] CT
0.149 GC
/Helvetica 13.333 F
GS
[1 0 0 1 0 0] CT
-9.5 14 moveto 
1 -1 scale
(0.7) t 
GR
GR
GS
[0.75 0 0 0.75 475.5 641.24998] CT
0.149 GC
/Helvetica 13.333 F
GS
[1 0 0 1 0 0] CT
-9.5 14 moveto 
1 -1 scale
(0.8) t 
GR
GR
GS
[0.75 0 0 0.75 524.625 641.24998] CT
0.149 GC
/Helvetica 13.333 F
GS
[1 0 0 1 0 0] CT
-9.5 14 moveto 
1 -1 scale
(0.9) t 
GR
GR
GS
[0.75 0 0 0.75 573.75 641.24998] CT
0.149 GC
/Helvetica 13.333 F
GS
[1 0 0 1 0 0] CT
-4 14 moveto 
1 -1 scale
(1) t 
GR
GR
GS
[0.75 0 0 0.75 328.12523 655.00002] CT
0.149 GC
/Helvetica 14.667 F
GS
[1 0 0 1 0 0] CT
-120.5 15 moveto 
1 -1 scale
(Rzeczywiste prawdopodobienstwo, p) t 
GR
GR
GS
[0.75 0 0 0.75 0 0.5] CT
0.149 GC
2 setlinecap
1 LJ
0.667 LW
N
110 849 M
110 72 L
S
GR
GS
[0.75 0 0 0.75 0 0.5] CT
0.149 GC
2 setlinecap
1 LJ
0.667 LW
N
765 849 M
765 72 L
S
GR
GS
[0.75 0 0 0.75 0 0.5] CT
0.149 GC
2 setlinecap
1 LJ
0.667 LW
N
110 849 M
117.77 849 L
S
GR
GS
[0.75 0 0 0.75 0 0.5] CT
0.149 GC
2 setlinecap
1 LJ
0.667 LW
N
110 719.5 M
117.77 719.5 L
S
GR
GS
[0.75 0 0 0.75 0 0.5] CT
0.149 GC
2 setlinecap
1 LJ
0.667 LW
N
110 590 M
117.77 590 L
S
GR
GS
[0.75 0 0 0.75 0 0.5] CT
0.149 GC
2 setlinecap
1 LJ
0.667 LW
N
110 460.5 M
117.77 460.5 L
S
GR
GS
[0.75 0 0 0.75 0 0.5] CT
0.149 GC
2 setlinecap
1 LJ
0.667 LW
N
110 331 M
117.77 331 L
S
GR
GS
[0.75 0 0 0.75 0 0.5] CT
0.149 GC
2 setlinecap
1 LJ
0.667 LW
N
110 201.5 M
117.77 201.5 L
S
GR
GS
[0.75 0 0 0.75 0 0.5] CT
0.149 GC
2 setlinecap
1 LJ
0.667 LW
N
110 72 M
117.77 72 L
S
GR
GS
[0.75 0 0 0.75 0 0.5] CT
0.149 GC
2 setlinecap
1 LJ
0.667 LW
N
765 849 M
757.23 849 L
S
GR
GS
[0.75 0 0 0.75 0 0.5] CT
0.149 GC
2 setlinecap
1 LJ
0.667 LW
N
765 719.5 M
757.23 719.5 L
S
GR
GS
[0.75 0 0 0.75 0 0.5] CT
0.149 GC
2 setlinecap
1 LJ
0.667 LW
N
765 590 M
757.23 590 L
S
GR
GS
[0.75 0 0 0.75 0 0.5] CT
0.149 GC
2 setlinecap
1 LJ
0.667 LW
N
765 460.5 M
757.23 460.5 L
S
GR
GS
[0.75 0 0 0.75 0 0.5] CT
0.149 GC
2 setlinecap
1 LJ
0.667 LW
N
765 331 M
757.23 331 L
S
GR
GS
[0.75 0 0 0.75 0 0.5] CT
0.149 GC
2 setlinecap
1 LJ
0.667 LW
N
765 201.5 M
757.23 201.5 L
S
GR
GS
[0.75 0 0 0.75 0 0.5] CT
0.149 GC
2 setlinecap
1 LJ
0.667 LW
N
765 72 M
757.23 72 L
S
GR
GS
[0.75 0 0 0.75 78.5 637.25] CT
0.149 GC
/Helvetica 13.333 F
GS
[1 0 0 1 0 0] CT
-8 5.5 moveto 
1 -1 scale
(0) t 
GR
GR
GS
[0.75 0 0 0.75 78.5 540.125] CT
0.149 GC
/Helvetica 13.333 F
GS
[1 0 0 1 0 0] CT
-19 5.5 moveto 
1 -1 scale
(0.2) t 
GR
GR
GS
[0.75 0 0 0.75 78.5 443] CT
0.149 GC
/Helvetica 13.333 F
GS
[1 0 0 1 0 0] CT
-19 5.5 moveto 
1 -1 scale
(0.4) t 
GR
GR
GS
[0.75 0 0 0.75 78.5 345.87498] CT
0.149 GC
/Helvetica 13.333 F
GS
[1 0 0 1 0 0] CT
-19 5.5 moveto 
1 -1 scale
(0.6) t 
GR
GR
GS
[0.75 0 0 0.75 78.5 248.75] CT
0.149 GC
/Helvetica 13.333 F
GS
[1 0 0 1 0 0] CT
-19 5.5 moveto 
1 -1 scale
(0.8) t 
GR
GR
GS
[0.75 0 0 0.75 78.5 151.625] CT
0.149 GC
/Helvetica 13.333 F
GS
[1 0 0 1 0 0] CT
-8 5.5 moveto 
1 -1 scale
(1) t 
GR
GR
GS
[0.75 0 0 0.75 78.5 54.49998] CT
0.149 GC
/Helvetica 13.333 F
GS
[1 0 0 1 0 0] CT
-19 5.5 moveto 
1 -1 scale
(1.2) t 
GR
GR
GS
[0 -0.75 0.75 0 61.25 345.8747] CT
0.149 GC
/Helvetica 14.667 F
GS
[1 0 0 1 0 0] CT
-107.5 -4 moveto 
1 -1 scale
(Prawdopodobienstwo klasyfikacji) t 
GR
GR
GS
[0.75 0 0 0.75 328.12532 52.43749] CT
/Helvetica-Bold 14.667 F
GS
[1 0 0 1 0 0] CT
-132 -4 moveto 
1 -1 scale
(Wyniki identyfikacji eksperymentalnej) t 
GR
GR
GS
[0.75 0 0 0.75 0 0.5] CT
0 0.447 0.741 RC
1 LJ
0.667 LW
N
142.75 201.5 M
175.5 201.5 L
208.25 201.5 L
241 201.5 L
273.75 266.25 L
306.5 525.25 L
339.25 719.5 L
372 849 L
404.75 784.25 L
437.5 849 L
470.25 849 L
503 849 L
535.75 849 L
568.5 849 L
601.25 849 L
634 849 L
666.75 849 L
699.5 849 L
732.25 849 L
S
GR
GS
[0.75 0 0 0.75 107.0625 151.625] CT
0 0.447 0.741 RC
N
1.333 0 M
1.333 0.736 0.736 1.333 0 1.333 C
-0.736 1.333 -1.333 0.736 -1.333 0 C
-1.333 -0.736 -0.736 -1.333 0 -1.333 C
0.736 -1.333 1.333 -0.736 1.333 0 C
cp
f
GR
GS
[0.75 0 0 0.75 131.625 151.625] CT
0 0.447 0.741 RC
N
/f-1057828618{1.333 0 M
1.333 0.736 0.736 1.333 0 1.333 C
-0.736 1.333 -1.333 0.736 -1.333 0 C
-1.333 -0.736 -0.736 -1.333 0 -1.333 C
0.736 -1.333 1.333 -0.736 1.333 0 C
cp}def
f-1057828618
f
GR
GS
[0.75 0 0 0.75 156.1875 151.625] CT
0 0.447 0.741 RC
N
f-1057828618
f
GR
GS
[0.75 0 0 0.75 180.75 151.625] CT
0 0.447 0.741 RC
N
f-1057828618
f
GR
GS
[0.75 0 0 0.75 205.3125 200.18752] CT
0 0.447 0.741 RC
N
f-1057828618
f
GR
GS
[0.75 0 0 0.75 229.875 394.4375] CT
0 0.447 0.741 RC
N
f-1057828618
f
GR
GS
[0.75 0 0 0.75 254.4375 540.125] CT
0 0.447 0.741 RC
N
f-1057828618
f
GR
GS
[0.75 0 0 0.75 279 637.25] CT
0 0.447 0.741 RC
N
f-1057828618
f
GR
GS
[0.75 0 0 0.75 303.5625 588.6875] CT
0 0.447 0.741 RC
N
f-1057828618
f
GR
GS
[0.75 0 0 0.75 328.125 637.25] CT
0 0.447 0.741 RC
N
f-1057828618
f
GR
GS
[0.75 0 0 0.75 352.6875 637.25] CT
0 0.447 0.741 RC
N
f-1057828618
f
GR
GS
[0.75 0 0 0.75 377.25002 637.25] CT
0 0.447 0.741 RC
N
f-1057828618
f
GR
GS
[0.75 0 0 0.75 401.8125 637.25] CT
0 0.447 0.741 RC
N
f-1057828618
f
GR
GS
[0.75 0 0 0.75 426.375 637.25] CT
0 0.447 0.741 RC
N
f-1057828618
f
GR
GS
[0.75 0 0 0.75 450.9375 637.25] CT
0 0.447 0.741 RC
N
f-1057828618
f
GR
GS
[0.75 0 0 0.75 475.5 637.25] CT
0 0.447 0.741 RC
N
f-1057828618
f
GR
GS
[0.75 0 0 0.75 500.0625 637.25] CT
0 0.447 0.741 RC
N
f-1057828618
f
GR
GS
[0.75 0 0 0.75 524.625 637.25] CT
0 0.447 0.741 RC
N
f-1057828618
f
GR
GS
[0.75 0 0 0.75 549.1875 637.25] CT
0 0.447 0.741 RC
N
f-1057828618
f
GR
GS
[0.75 0 0 0.75 0 0.5] CT
0.851 0.325 0.098 RC
1 LJ
0.667 LW
N
142.75 849 M
175.5 849 L
208.25 849 L
241 849 L
273.75 784.25 L
306.5 525.25 L
339.25 331 L
372 201.5 L
404.75 266.25 L
437.5 201.5 L
470.25 201.5 L
503 201.5 L
535.75 266.25 L
568.5 784.25 L
601.25 849 L
634 849 L
666.75 849 L
699.5 849 L
732.25 849 L
S
GR
GS
[0.75 0 0 0.75 107.0625 637.25] CT
0.851 0.325 0.098 RC
N
f-1057828618
f
GR
GS
[0.75 0 0 0.75 131.625 637.25] CT
0.851 0.325 0.098 RC
N
f-1057828618
f
GR
GS
[0.75 0 0 0.75 156.1875 637.25] CT
0.851 0.325 0.098 RC
N
f-1057828618
f
GR
GS
[0.75 0 0 0.75 180.75 637.25] CT
0.851 0.325 0.098 RC
N
f-1057828618
f
GR
GS
[0.75 0 0 0.75 205.3125 588.6875] CT
0.851 0.325 0.098 RC
N
f-1057828618
f
GR
GS
[0.75 0 0 0.75 229.875 394.4375] CT
0.851 0.325 0.098 RC
N
f-1057828618
f
GR
GS
[0.75 0 0 0.75 254.4375 248.75] CT
0.851 0.325 0.098 RC
N
f-1057828618
f
GR
GS
[0.75 0 0 0.75 279 151.625] CT
0.851 0.325 0.098 RC
N
f-1057828618
f
GR
GS
[0.75 0 0 0.75 303.5625 200.18752] CT
0.851 0.325 0.098 RC
N
f-1057828618
f
GR
GS
[0.75 0 0 0.75 328.125 151.625] CT
0.851 0.325 0.098 RC
N
f-1057828618
f
GR
GS
[0.75 0 0 0.75 352.6875 151.625] CT
0.851 0.325 0.098 RC
N
f-1057828618
f
GR
GS
[0.75 0 0 0.75 377.25002 151.625] CT
0.851 0.325 0.098 RC
N
f-1057828618
f
GR
GS
[0.75 0 0 0.75 401.8125 200.18752] CT
0.851 0.325 0.098 RC
N
f-1057828618
f
GR
GS
[0.75 0 0 0.75 426.375 588.6875] CT
0.851 0.325 0.098 RC
N
f-1057828618
f
GR
GS
[0.75 0 0 0.75 450.9375 637.25] CT
0.851 0.325 0.098 RC
N
f-1057828618
f
GR
GS
[0.75 0 0 0.75 475.5 637.25] CT
0.851 0.325 0.098 RC
N
f-1057828618
f
GR
GS
[0.75 0 0 0.75 500.0625 637.25] CT
0.851 0.325 0.098 RC
N
f-1057828618
f
GR
GS
[0.75 0 0 0.75 524.625 637.25] CT
0.851 0.325 0.098 RC
N
f-1057828618
f
GR
GS
[0.75 0 0 0.75 549.1875 637.25] CT
0.851 0.325 0.098 RC
N
f-1057828618
f
GR
GS
[0.75 0 0 0.75 0 0.5] CT
0.929 0.694 0.125 RC
1 LJ
0.667 LW
N
142.75 849 M
175.5 849 L
208.25 849 L
241 849 L
273.75 849 L
306.5 849 L
339.25 849 L
372 849 L
404.75 849 L
437.5 849 L
470.25 849 L
503 849 L
535.75 784.25 L
568.5 266.25 L
601.25 201.5 L
634 201.5 L
666.75 201.5 L
699.5 201.5 L
732.25 201.5 L
S
GR
GS
[0.75 0 0 0.75 107.0625 637.25] CT
0.929 0.694 0.125 RC
N
f-1057828618
f
GR
GS
[0.75 0 0 0.75 131.625 637.25] CT
0.929 0.694 0.125 RC
N
f-1057828618
f
GR
GS
[0.75 0 0 0.75 156.1875 637.25] CT
0.929 0.694 0.125 RC
N
f-1057828618
f
GR
GS
[0.75 0 0 0.75 180.75 637.25] CT
0.929 0.694 0.125 RC
N
f-1057828618
f
GR
GS
[0.75 0 0 0.75 205.3125 637.25] CT
0.929 0.694 0.125 RC
N
f-1057828618
f
GR
GS
[0.75 0 0 0.75 229.875 637.25] CT
0.929 0.694 0.125 RC
N
f-1057828618
f
GR
GS
[0.75 0 0 0.75 254.4375 637.25] CT
0.929 0.694 0.125 RC
N
f-1057828618
f
GR
GS
[0.75 0 0 0.75 279 637.25] CT
0.929 0.694 0.125 RC
N
f-1057828618
f
GR
GS
[0.75 0 0 0.75 303.5625 637.25] CT
0.929 0.694 0.125 RC
N
f-1057828618
f
GR
GS
[0.75 0 0 0.75 328.125 637.25] CT
0.929 0.694 0.125 RC
N
f-1057828618
f
GR
GS
[0.75 0 0 0.75 352.6875 637.25] CT
0.929 0.694 0.125 RC
N
f-1057828618
f
GR
GS
[0.75 0 0 0.75 377.25002 637.25] CT
0.929 0.694 0.125 RC
N
f-1057828618
f
GR
GS
[0.75 0 0 0.75 401.8125 588.6875] CT
0.929 0.694 0.125 RC
N
f-1057828618
f
GR
GS
[0.75 0 0 0.75 426.375 200.18752] CT
0.929 0.694 0.125 RC
N
f-1057828618
f
GR
GS
[0.75 0 0 0.75 450.9375 151.625] CT
0.929 0.694 0.125 RC
N
f-1057828618
f
GR
GS
[0.75 0 0 0.75 475.5 151.625] CT
0.929 0.694 0.125 RC
N
f-1057828618
f
GR
GS
[0.75 0 0 0.75 500.0625 151.625] CT
0.929 0.694 0.125 RC
N
f-1057828618
f
GR
GS
[0.75 0 0 0.75 524.625 151.625] CT
0.929 0.694 0.125 RC
N
f-1057828618
f
GR
GS
[0.75 0 0 0.75 549.1875 151.625] CT
0.929 0.694 0.125 RC
N
f-1057828618
f
GR
GS
[0.75 0 0 0.75 0 0.5] CT
1 GC
N
878 125 M
878 72 L
785 72 L
785 125 L
cp
f
GR
GS
[0.75 0 0 0.75 624 62] CT
/Helvetica 12 F
GS
[1 0 0 1 0 0] CT
0 5 moveto 
1 -1 scale
(Male) t 
GR
GR
GS
[0.75 0 0 0.75 0 0.5] CT
0 0.447 0.741 RC
1 LJ
0.667 LW
N
789 82 M
829 82 L
S
GR
GS
[0.75 0 0 0.75 606.75 62] CT
0 0.447 0.741 RC
N
f-1057828618
f
GR
GS
[0.75 0 0 0.75 624 74.375] CT
/Helvetica 12 F
GS
[1 0 0 1 0 0] CT
0 5 moveto 
1 -1 scale
(Srednie) t 
GR
GR
GS
[0.75 0 0 0.75 0 0.5] CT
0.851 0.325 0.098 RC
1 LJ
0.667 LW
N
789 98.5 M
829 98.5 L
S
GR
GS
[0.75 0 0 0.75 606.75 74.375] CT
0.851 0.325 0.098 RC
N
f-1057828618
f
GR
GS
[0.75 0 0 0.75 624 86.75] CT
/Helvetica 12 F
GS
[1 0 0 1 0 0] CT
0 5 moveto 
1 -1 scale
(Duze) t 
GR
GR
GS
[0.75 0 0 0.75 0 0.5] CT
0.929 0.694 0.125 RC
1 LJ
0.667 LW
N
789 115 M
829 115 L
S
GR
GS
[0.75 0 0 0.75 606.75 86.75] CT
0.929 0.694 0.125 RC
N
f-1057828618
f
GR
GS
[0.75 0 0 0.75 0 0.5] CT
0.149 GC
10.0 ML
0.667 LW
N
785 125 M
785 72 L
878 72 L
878 125 L
cp
S
GR
%%Trailer
%%Pages: 1
%%EOF
